160 67 172 108 205 65 192 180 95 163 240 127 246 21 79 22 278 96 126 69 208 71 171 265
171 71 175 207 262 182 96 181 222 214 137 34 105 190 88 3 112 15 20 219 149 36 102 54 277 147 45 253 148 270 46 144 47 94 50 51 276
93 46 144 47 94 50 51 198 133 43 81 44 242 17 74 188 187 8 104 239 199 105 88 38 29 106 210 252 217 66 263 11 166 122 138 97 224 99 59 116 152 151 92 275
115 143 30 142 274 273 275 92 151 154 58 209 244 157 156 97 245 123 167 201 110 194 101 16 114 4 193 3 33 76 255 2 188
70 125 171 257 126 96 278 22 79 221 127 61 240 62 164 111 177 65 243 197 159 178 6 186 11 166 247 123 118 57 59 152 195 56 153 274 142 85 115
117 238 174 139 140 114 220 248 38 170 24 137 25 179 28 129 141 17 242 44 43 133 55 135 276 134 52 212 49 53 268
98 155 120 58 209 99 224 97 245 138 165 18 173 67 68 124 250 177 111 90 64 234 233 232 183 61 127 246 26 27 80 150 214
91 259 131 132 253 147 82 42 204 202 12 254 37 15 112 3 88 170 267 39 23 146 161 63 192 65 205 108 172 67 160
70 271 72 71 175 262 182 96 40 181 103 27 26 39 106 158 5 19 261 247 168 201 167 1 211 117
70 256 207 262 182 96 78 73 21 246 185 162 161 252 109 196 261 166 247 123 118 57 99 59 116 227 119 241
115 85 226 84 32 117 238 174 35 20 218 36 12 204 42 102 54 277 147 132 236 148 270 46 144 48 145 49 53 268
47 94 50 51 198 55 133 203 82 42 204 12 75 231 37 15 140 114 113 10 121 215 261 166 122 138 97 156 157 83 98
78 22 169 79 21 264 26 24 34 86 9 249 8 129 141 17 202 204 42 102 54 131 258 259 91
184 51 198 133 203 82 42 102 36 218 20 139 101 14 100 261 11 13 107 235
19 7 158 87 29 170 190 191 137 25 179 130 41
104 228 33 105 190 170 267 39 23 60 162 95 180 192 65 243 223 197 159 213 235
171 89 125 72 71 175 262 182 96 78 22 73 21 246 23 229 252 77 196 261 166 247 123 118 57 116 152 195 56 119 32 206
22 78 96 40 176 41 136 130 179 28 129 141 17 242 44 43 133 198 51 184
87 158 266 210 252 217 216 159 213 235
47 200 49 212 52 134 276 135 55 133 203 44 242 17 74 188 2 189 228 33 199 105 191 24 80 27 78 96 182 262 207 256
206 32 84 31 225 142 274 153 92 151 154 58 209 244 157 156 97 138 122 166 11 263 66 217 161 162 163 62 240 61 127 246 26 27 103 181 96 126 257 171 265
83 120 58 209 99 57 118 245 138 165 18 173 67 68 124 251 250 177 111 90 64 233 61 128 127 246 26 27 103 181 96 126 257 171
91 259 131 54 102 36 149 237 20 15 112 3 88 190 191 137 214 222 176 40 96 182 262 207 175 71 171 265
91 259 258 260 131 132 253 147 82 42 204 202 17 141 129 28 179 130 41 176 40 96 278
86 199 33 76 112 15 37 254 12 202 204 42 82 203 133 55 135 276 134 52 212 269 49 53 268
184 51 198 55 133 43 44 82 42 102 36 218 20 35 238 117 272
171 230 89 125 70 256
