205 107 123 251 250 176 110 179 94 163 61 63 233
77 95 180 39 175 40 129 135 214 136 33
44 254
231 36 74 11 204 41 101 53 130 131 236 147 271 45 92 200 134 54 132 203 81
268 38 105 210 267 157 4 220 248 86 28 37 169 87 104 190 23 79 149 214 222 180 39
176 250 123 67 171 158 177
90 260 130 261 259 148 219 34 173 138
219 148 35 218 19 138 173 238 116 211 109 201 166 0 117 245 122 247 167 193 100 15 139 3 192 2 32
116 238 34 173 138 100 15 3 192 87 169 189 190 104 198 32 75 111 2
183 50 49
196 223 243 64 191 217 216 158 177 5 185 10 247 165 262 215 99 13 100 138 19
273 116 31 83 114 84 226 30 225 141 29 142
257 207 263 174 68 208 70 71 272 69 124 88 230 170 258 125 95
80 42 43 81 41 101 35
127 126 221 78 168 21 77 26 25 38 22 246 184 240 162 94 179 110 89 63 234
44 254 131 146 53 101 35 218 19 34 238 116 97 31 91 150 151 58 115 227 118 55
269 52 48 270 212 51 93
249 7 186 128 27 178 24 136 85 198 104 32 2
72 20 265 25 26 102 180 39 95 181 263 207 174 71 124 170 266
264 185 10 12 121 137 245 96 224 98 56 117 122 166 201 167 193 173 238 34 219 148 237 19
172 17 164 12
64 205 107 123 251 250 176 110 179 94 163 61 63 233 60
126 60 240 184 59 145 229 252 76 195 108 6
45 143 47 144 48 199 46 93 49 133
12 10 262 18 6 4 9 120 99 13 112 113 3 15 139 14 36 74 73 187 186 7 249 8 103 228 32 75 256
106 12 10 165 262 195 76 252 160 145 59 22 229 210 267 157 86 4 9 120 215 99 167 247 122 245 137 96
56 115 58 153 154 119 57 209 244 156 155 96 137
42 43 242 16 202 11 255 74
34 19 14 139 15 3 220 86 4 157 105 38 25 246 126 127 60 182 232 233 63 89 110 176 250 251 123 67 171
2 32 198 239 85 8 103 188 1 187 140 128 27 178 24
58 56 96 245 137 164 17 172 159 66 171 158 213 235 106 12 121 165 247 262 99 13 15 139
100 193 109 211 116 91 194
206 31
13 100 193 109 201 167 247 165 10 185 264 65 216 223 243 64 191 217 160 161 184 246 126 127 60 233
53 130 131 147 271 45 143 46 93 49 50 197 54 132 42
92 253 200 134 133
241 118 31 116
31 118 55 152 91 150 151 115 56 117 245 96 137
82 156 224 96 245 117 0
160 62 191
